{
  "name": "Desarrollo Ciudadano",
  "image": "portada.jpg",
  "temas": [
    {
      "tema": "Introducción",
      "subtemas": [      
        {
          "tema": "Unidad de aprendizaje 2",
          "url": "index.html"
        },
        {
          "tema": "Transversalidad de los aprendizajes",
          "url": "aprendizajes.html"
        },
        {
          "tema": "Proyecto formativo",
          "url": "proyecto_formativo.html"
        },
        {
          "tema": "Explora tu mundo",
          "url": "explora_tu_mundo.html"
        },
        {
          "tema": "Evaluación diagnóstica",
          "url": "evaluacion_diagnostica.html"
        }
      ]
    },
    {
      "tema": "Distinción entre ciencia y tecnología",
      "subtemas": [
        {
          "tema": "Conceptos",
          "url": "tema1.0.0.html"
        },
        {
          "tema": "Fines",
          "url": "tema1.1.0.html"
        },
        {
          "tema": "Beneficios en la sociedad",
          "url": "tema1.2.0.html"
        },
        {
          "tema": "Riesgos en las relaciones humanas",
          "url": "tema1.3.0.html"
        },
        {
          "tema": "Actividad 1",
          "url": "tema1.3.0A1.html"
        }

      ]
    },
    {
      "tema": "Diferenciación de prácticas de consumo en el mundo de la tecnología",
      "subtemas": [
        {
          "tema": "Satisfacción de necesidades",
          "url": "tema2.0.0.html"
        },
        {
          "tema": "Actividad 2",
          "url": "tema2.0.0A2.html"
        },
        {
          "tema": "Consumismo",
          "url": "tema2.1.0.html"
        },
        {
          "tema": "Actividad 3",
          "url": "tema2.1.0A3.html"
        },
        {
          "tema": "Estereotipos",
          "url": "tema2.2.0.html"
        },
        {
          "tema": "Actividad 4",
          "url": "tema2.2.0A4.html"
        },
        {
          "tema": "Actividad 5",
          "url": "tema2.2.0A5.html"
        },
        {
          "tema": "Dispositivos electrónicos",
          "url": "tema2.2.1_dispositivos_electronicos.html"
        }

      ]
    },
    {
      "tema": "Abuso de la tecnología en los jóvenes",
      "subtemas": [
        {
          "tema": "Teléfono móvil o celular",
          "url": "tema3.0.0.html"
        },
        {
          "tema": "Actividad 6",
          "url": "tema3.0.0A6.html"
        },
        {
          "tema": "Computadora y otros dispositivos electrónicos",
          "url": "tema3.1.0.html"
        },
        {
          "tema": "Internet",
          "url": "tema3.2.0.html"
        },
        {
          "tema": "Redes sociales",
          "url": "tema3.3.0.html"
        },
        {
          "tema": "Actividad 7",
          "url": "tema3.3.0A7.html"
        }

      ]
    },
    {
      "tema": "Consumo responsable de artículos o servicios de tecnología",
      "subtemas": [
        {
          "tema": "Criterios",
          "url": "tema4.0.0.html"
        },
        {
          "tema": "Actividad 8",
          "url": "tema4.0.0A8.html"
        },
        {
          "tema": "Uso de los recursos digitales y tecnológicos como herramientas",
          "url": "tema4.1.0.html"
        },
        {
          "tema": "Actividad transversal",
          "url": "tema4.1.0_actividad_transversal.html"
        }

      ]
    },
    {
      "tema": "Valoración de implicaciones éticas de riesgo en el desarrollo científico y tecnológico",
      "subtemas": [
        {
          "tema": "Pruebas genéticas",
          "url": "tema5.0.0.html"
        },
        {
          "tema": "Eutanasia",
          "url": "tema5.1.0.html"
        },
        {
          "tema": "Sofisticación en el armamentismo",
          "url": "tema5.2.0.html"
        },
        {
          "tema": "Reemplazo de mano de obra por las máquinas",
          "url": "tema5.3.0.html"
        },
        {
          "tema": "Acceso desigual a bienes y servicios de la ciencia y la tecnología",
          "url": "tema5.4.0.html"
        },
        {
          "tema": "Actividad 9",
          "url": "tema5.4.0A9.html"
        },
        {
          "tema": "Actividad 10",
          "url": "tema5.4.0A10.html"
        },
        {
          "tema": "Proyecto formativo",
          "url": "tema5.4.1_proyecto_formativo.html"
        }

      ]
    },
    {
      "tema": "Valoración de los aportes tecnológicos y científicos para la construcción del bien común y la sostenibilidad",
      "subtemas": [
        {
          "tema": "Calidad de vida y bienestar",
          "url": "tema6.0.0.html"
        },
        {
          "tema": "Construcción social",
          "url": "tema6.1.0.html"
        },
        {
          "tema": "Actividad 11",
          "url": "tema6.1.0A11.html"
        },
        {
          "tema": "Fomento a la lectura",
          "url": "tema6.1.0A11_lectura.html"
        },
        {
          "tema": "Actividad DHS",
          "url": "tema6.1.1_dhs.html"
        },
        {
          "tema": "Evaluación formativa",
          "url": "tema6.1.2_evaluacion_formativa.html"
        },
        {
          "tema": "Proyecto formativo",
          "url": "tema6.1.2_proyecto_formativo.html"
        },
        {
          "tema": "Oriéntate",
          "url": "tema6.1.3_orientate.html"
        },
        {
          "tema": "Vinculación de competencias y resultados de aprendizaje",
          "url": "tema6.1.3_vinculacion_de_competencias.html"
        },
        {
          "tema": "Evaluación sumativa",
          "url": "tema6.1.4_evaluacion_sumativa.html"
        },
        {
          "tema": "Prueba tipo PLANEA",
          "url": "tema6.1.4_prueba_planea.html"
        }
      ]
    }
  ]
}